…
<img src="/images/unnamed-chunk-4-1.png" alt="Example Image">

<img src="/images/unnamed-chunk-4-2.png" alt="Example Image">

<img src="/images/unnamed-chunk-4-3.png" alt="Example Image">

<img src="/images/unnamed-chunk-4-4.png" alt="Example Image">

<img src="/images/unnamed-chunk-4-5.png" alt="Example Image">

    ## # A tibble: 351 × 3
    ##    docname word   category
    ##    <chr>   <chr>  <fct>   
    ##  1 2002    hero   Heroism 
    ##  2 2002    hero   Heroism 
    ##  3 2002    hero   Heroism 
    ##  4 2003    hero   Heroism 
    ##  5 2003    hero   Heroism 
    ##  6 2003    hero   Heroism 
    ##  7 2003    proud  Heroism 
    ##  8 2003    father Family  
    ##  9 2003    family Family  
    ## 10 2003    dad    Family  
    ## # ℹ 341 more rows
…
    ## # A tibble: 56 × 2
    ##    word       freq
    ##    <chr>     <int>
    ##  1 admirer       1
    ##  2 apologies     3
    ##  3 apologize     6
    ##  4 apology       4
    ##  5 brave        17
    ##  6 bravest       2
    ##  7 brother       5
    ##  8 brothers      2
    ##  9 champion      6
    ## 10 child         8
    ## # ℹ 46 more rows
…
